<?xml version="1.0" standalone="no"?>
<!DOCTYPE svg PUBLIC "-//W3C//DTD SVG 1.1//EN" "http://www.w3.org/Graphics/SVG/1.1/DTD/svg11.dtd" >
<svg xmlns="http://www.w3.org/2000/svg">
<metadata>
<json>
<![CDATA[
{
	"fontFamily": "mywetroom",
	"description": "Font generated by IcoMoon.",
	"majorVersion": 1,
	"minorVersion": 0,
	"version": "Version 1.0",
	"fontId": "mywetroom",
	"psName": "mywetroom",
	"subFamily": "Regular",
	"fullName": "mywetroom"
}
]]>
</json>
</metadata>
<defs>
<font id="mywetroom" horiz-adv-x="1024">
<font-face units-per-em="1024" ascent="960" descent="-64" />
<missing-glyph horiz-adv-x="1024" />
<glyph unicode="&#x20;" horiz-adv-x="512" d="" />
<glyph unicode="&#x3e;" glyph-name="right-arrow" data-tags="right" d="M330.733-70.36l-139.925 139.925 375.255 375.255-375.255 375.255 139.925 139.925 502.46-515.18z" />
<glyph unicode="&#x63;" glyph-name="calculator" data-tags="boardcal" d="M512-64c-282.947 0-512 229.053-512 512s229.053 512 512 512 512-229.053 512-512-229.053-512-512-512zM512 906.105c-253.305 0-458.105-204.8-458.105-458.105s204.8-458.105 458.105-458.105 458.105 204.8 458.105 458.105-204.8 458.105-458.105 458.105zM485.053 852.211c-199.411-13.474-358.4-175.158-371.874-374.568h371.874v374.568zM113.179 423.747c13.474-199.411 172.463-361.095 371.874-374.568v374.568h-371.874zM918.905 477.642c-13.474 202.105-177.853 363.789-379.958 377.263v-374.568h379.958zM538.947 49.179c202.105 10.779 366.484 172.463 379.958 374.568h-379.958v-374.568zM606.316 345.6h175.158v-51.2h-175.158v51.2zM781.474 251.284v-51.2h-175.158v51.2h175.158zM781.474 644.716v-51.2h-175.158v51.2h175.158zM382.653 194.695l-43.116 43.116-43.116-43.116-37.726 37.726 43.116 43.116-43.116 43.116 37.726 37.726 43.116-43.116 43.116 43.116 37.726-37.726-43.116-43.116 43.116-43.116-37.726-37.726zM366.484 531.537h-51.2v61.979h-61.979v51.2h61.979v61.979h51.2v-61.979h61.979v-51.2h-61.979v-61.979z" />
<glyph unicode="&#x64;" glyph-name="double-down-arrow" data-tags="double-down-arrow" d="M512-41.6l-409.6 409.6 108.8 105.6 300.8-300.8 300.8 300.8 108.8-105.6zM512 422.4l-409.6 409.6 108.8 105.6 300.8-300.8 300.8 300.8 108.8-105.6z" />
<glyph unicode="&#x69;" glyph-name="info" data-tags="info" d="M512-64c-283.569 0-512 228.431-512 512s228.431 512 512 512c283.569 0 512-228.431 512-512s-228.431-512-512-512zM512 881.231c-240.246 0-433.231-192.985-433.231-433.231s192.985-433.231 433.231-433.231 433.231 192.985 433.231 433.231-192.985 433.231-433.231 433.231zM594.708 534.646l-78.769-271.754c-3.938-15.754-7.877-27.569-7.877-31.508s0-3.938 3.938-7.877 3.938-3.938 7.877-3.938 7.877 0 11.815 3.938c11.815 7.877 23.631 27.569 43.323 51.2l11.815-7.877c-39.385-66.954-78.769-102.4-122.092-102.4-15.754 0-31.508 3.938-39.385 15.754-11.815 7.877-15.754 19.692-15.754 35.446 0 7.877 3.938 19.692 7.877 35.446l55.138 185.108c3.938 15.754 7.877 31.508 7.877 39.385 0 3.938-3.938 11.815-7.877 15.754s-11.815 7.877-19.692 7.877c-3.938 0-7.877 0-15.754 0l3.938 15.754 129.969 19.692c0 0 23.631 0 23.631 0zM571.077 711.877c15.754 0 27.569-3.938 39.385-15.754s15.754-23.631 15.754-39.385-3.938-27.569-15.754-39.385c-11.815-11.815-23.631-15.754-39.385-15.754s-27.569 3.938-39.385 15.754c-11.815 11.815-15.754 23.631-15.754 39.385s3.938 27.569 15.754 39.385c7.877 7.877 23.631 15.754 39.385 15.754z" />
<glyph unicode="&#x76;" glyph-name="down-arrow" data-tags="down" d="M515.18 126.807l-515.18 502.46 139.925 139.925 375.255-375.255 375.255 375.255 139.925-139.925z" />
<glyph unicode="&#x78;" glyph-name="cross" data-tags="cross" d="M819.2 918.4l163.2-163.2-307.2-307.2 307.2-307.2-163.2-163.2-307.2 307.2-307.2-307.2-163.2 163.2 307.2 307.2-307.2 307.2 163.2 163.2 307.2-307.2 307.2 307.2z" />
</font></defs></svg>