<!-- Generator: Adobe Illustrator 20.1.0, SVG Export Plug-In  -->
<svg version="1.1"
	 xmlns="http://www.w3.org/2000/svg" xmlns:xlink="http://www.w3.org/1999/xlink" xmlns:a="http://ns.adobe.com/AdobeSVGViewerExtensions/3.0/"
	 x="0px" y="0px" width="144px" height="102px" viewBox="0 0 144 102" style="enable-background:new 0 0 144 102;"
	 xml:space="preserve">
<style type="text/css">
	.st0{fill:none;stroke:#575756;stroke-width:4;stroke-linecap:round;stroke-linejoin:round;stroke-miterlimit:10;}
	.st1{fill:#FFFFFF;stroke:#575756;stroke-width:4;stroke-linecap:round;stroke-linejoin:round;stroke-miterlimit:10;}
	.st2{fill:#575756;}
</style>
<defs>
</defs>
<polyline class="st0" points="142,58 72,100 2,58 "/>
<polygon class="st1" points="142,44 72,86 2,44 72,2 "/>
<g>
	<g>
		<path class="st2" d="M71.9,34.2c0,1.3-0.4,2.5-1.2,3.4c-0.8,1-2,1.6-3.5,2.1v0.1c3.6,0.4,5.4,2.1,5.4,5.1c0,2-0.8,3.6-2.4,4.7
			s-3.8,1.7-6.6,1.7c-1.2,0-2.2-0.1-3.2-0.2s-2-0.5-3.2-0.9v-4.8c0.9,0.5,1.9,0.8,2.9,1.1c1,0.2,1.9,0.3,2.7,0.3
			c1.3,0,2.2-0.2,2.8-0.5s0.9-0.9,0.9-1.7c0-0.6-0.2-1-0.5-1.4c-0.3-0.3-0.8-0.6-1.5-0.7c-0.7-0.2-1.6-0.2-2.6-0.2h-1.3v-4.4h1.3
			c2.9,0,4.4-0.8,4.4-2.3c0-0.6-0.2-1-0.7-1.3s-1-0.4-1.8-0.4c-1.4,0-2.8,0.5-4.2,1.4l-2.4-3.9c1.1-0.8,2.3-1.3,3.5-1.7
			s2.5-0.5,4.1-0.5c2.2,0,4,0.4,5.2,1.3S71.9,32.7,71.9,34.2z"/>
		<path class="st2" d="M90.3,40.3c0,3.8-0.6,6.6-1.9,8.3c-1.3,1.8-3.2,2.6-5.8,2.6c-2.6,0-4.5-0.9-5.8-2.8c-1.3-1.8-1.9-4.6-1.9-8.2
			c0-3.8,0.6-6.6,1.9-8.4c1.3-1.8,3.2-2.7,5.8-2.7c2.5,0,4.5,0.9,5.8,2.8C89.6,33.9,90.3,36.7,90.3,40.3z M80.6,40.3
			c0,2.4,0.2,4.1,0.5,5s0.8,1.4,1.5,1.4c0.7,0,1.2-0.5,1.5-1.4s0.4-2.6,0.4-5c0-2.4-0.2-4-0.5-5c-0.3-1-0.8-1.4-1.5-1.4
			s-1.2,0.5-1.5,1.4S80.6,37.9,80.6,40.3z"/>
		<path class="st2" d="M68,64.6h-2.1v-4.5c0-0.6-0.1-1-0.3-1.2c-0.2-0.3-0.5-0.4-0.9-0.4c-0.5,0-0.9,0.2-1.2,0.6s-0.4,1-0.4,1.9v3.6
			h-2.1V57h1.6l0.3,1h0.1c0.2-0.4,0.5-0.6,0.9-0.8c0.4-0.2,0.8-0.3,1.3-0.3c1.1,0,1.9,0.4,2.3,1.1h0.2c0.2-0.4,0.5-0.6,0.9-0.8
			s0.8-0.3,1.4-0.3c0.9,0,1.5,0.2,2,0.7c0.4,0.4,0.7,1.2,0.7,2.1v5h-2.1v-4.5c0-0.6-0.1-1-0.3-1.2c-0.2-0.3-0.5-0.4-0.9-0.4
			c-0.5,0-0.9,0.2-1.1,0.5S68,60,68,60.8V64.6z"/>
		<path class="st2" d="M81.7,64.6h-2.1v-4.5c0-0.6-0.1-1-0.3-1.2c-0.2-0.3-0.5-0.4-0.9-0.4c-0.5,0-0.9,0.2-1.2,0.6s-0.4,1-0.4,1.9
			v3.6h-2.1V57h1.6l0.3,1h0.1c0.2-0.4,0.5-0.6,0.9-0.8c0.4-0.2,0.8-0.3,1.3-0.3c1.1,0,1.9,0.4,2.3,1.1h0.2c0.2-0.4,0.5-0.6,0.9-0.8
			s0.8-0.3,1.4-0.3c0.9,0,1.5,0.2,2,0.7c0.4,0.4,0.7,1.2,0.7,2.1v5h-2.1v-4.5c0-0.6-0.1-1-0.3-1.2c-0.2-0.3-0.5-0.4-0.9-0.4
			c-0.5,0-0.9,0.2-1.1,0.5s-0.4,0.9-0.4,1.7V64.6z"/>
	</g>
</g>
</svg>
